('C:\\Users\\Weksi\\Dropbox\\git_kod\\rpgteamgenerator\\rpgteamgeneratorconsole\\build\\teamgeneratortext\\teamgeneratortext.pkg',
 {'BINARY': 1,
  'DATA': 1,
  'EXECUTABLE': 1,
  'EXTENSION': 1,
  'PYMODULE': 1,
  'PYSOURCE': 1,
  'PYZ': 0,
  'SPLASH': 1},
 [('PYZ-00.pyz',
   'C:\\Users\\Weksi\\Dropbox\\git_kod\\rpgteamgenerator\\rpgteamgeneratorconsole\\build\\teamgeneratortext\\PYZ-00.pyz',
   'PYZ'),
  ('struct',
   'C:\\Users\\Weksi\\Dropbox\\git_kod\\rpgteamgenerator\\rpgteamgeneratorconsole\\build\\teamgeneratortext\\localpycs\\struct.pyc',
   'PYMODULE'),
  ('pyimod01_archive',
   'C:\\Users\\Weksi\\Dropbox\\git_kod\\rpgteamgenerator\\rpgteamgeneratorconsole\\build\\teamgeneratortext\\localpycs\\pyimod01_archive.pyc',
   'PYMODULE'),
  ('pyimod02_importers',
   'C:\\Users\\Weksi\\Dropbox\\git_kod\\rpgteamgenerator\\rpgteamgeneratorconsole\\build\\teamgeneratortext\\localpycs\\pyimod02_importers.pyc',
   'PYMODULE'),
  ('pyimod03_ctypes',
   'C:\\Users\\Weksi\\Dropbox\\git_kod\\rpgteamgenerator\\rpgteamgeneratorconsole\\build\\teamgeneratortext\\localpycs\\pyimod03_ctypes.pyc',
   'PYMODULE'),
  ('pyimod04_pywin32',
   'C:\\Users\\Weksi\\Dropbox\\git_kod\\rpgteamgenerator\\rpgteamgeneratorconsole\\build\\teamgeneratortext\\localpycs\\pyimod04_pywin32.pyc',
   'PYMODULE'),
  ('pyiboot01_bootstrap',
   'C:\\Users\\Weksi\\AppData\\Local\\Programs\\Python\\Python310\\lib\\site-packages\\PyInstaller\\loader\\pyiboot01_bootstrap.py',
   'PYSOURCE'),
  ('pyi_rth_inspect',
   'C:\\Users\\Weksi\\AppData\\Local\\Programs\\Python\\Python310\\Lib\\site-packages\\PyInstaller\\hooks\\rthooks\\pyi_rth_inspect.py',
   'PYSOURCE'),
  ('pyi_rth_subprocess',
   'C:\\Users\\Weksi\\AppData\\Local\\Programs\\Python\\Python310\\Lib\\site-packages\\PyInstaller\\hooks\\rthooks\\pyi_rth_subprocess.py',
   'PYSOURCE'),
  ('teamgeneratortext',
   'C:\\Users\\Weksi\\Dropbox\\git_kod\\rpgteamgenerator\\rpgteamgeneratorconsole\\teamgeneratortext.py',
   'PYSOURCE'),
  ('python310.dll',
   'C:\\Users\\Weksi\\AppData\\Local\\Programs\\Python\\Python310\\python310.dll',
   'BINARY'),
  ('vcruntime140.dll',
   'C:\\Users\\Weksi\\AppData\\Local\\Programs\\Python\\Python310\\VCRUNTIME140.dll',
   'BINARY'),
  ('select',
   'C:\\Users\\Weksi\\AppData\\Local\\Programs\\Python\\Python310\\DLLs\\select.pyd',
   'EXTENSION'),
  ('_socket',
   'C:\\Users\\Weksi\\AppData\\Local\\Programs\\Python\\Python310\\DLLs\\_socket.pyd',
   'EXTENSION'),
  ('_lzma',
   'C:\\Users\\Weksi\\AppData\\Local\\Programs\\Python\\Python310\\DLLs\\_lzma.pyd',
   'EXTENSION'),
  ('_bz2',
   'C:\\Users\\Weksi\\AppData\\Local\\Programs\\Python\\Python310\\DLLs\\_bz2.pyd',
   'EXTENSION'),
  ('_ssl',
   'C:\\Users\\Weksi\\AppData\\Local\\Programs\\Python\\Python310\\DLLs\\_ssl.pyd',
   'EXTENSION'),
  ('_hashlib',
   'C:\\Users\\Weksi\\AppData\\Local\\Programs\\Python\\Python310\\DLLs\\_hashlib.pyd',
   'EXTENSION'),
  ('unicodedata',
   'C:\\Users\\Weksi\\AppData\\Local\\Programs\\Python\\Python310\\DLLs\\unicodedata.pyd',
   'EXTENSION'),
  ('_decimal',
   'C:\\Users\\Weksi\\AppData\\Local\\Programs\\Python\\Python310\\DLLs\\_decimal.pyd',
   'EXTENSION'),
  ('libcrypto-1_1.dll',
   'C:\\Users\\Weksi\\AppData\\Local\\Programs\\Python\\Python310\\DLLs\\libcrypto-1_1.dll',
   'BINARY'),
  ('libssl-1_1.dll',
   'C:\\Users\\Weksi\\AppData\\Local\\Programs\\Python\\Python310\\DLLs\\libssl-1_1.dll',
   'BINARY'),
  ('base_library.zip',
   'C:\\Users\\Weksi\\Dropbox\\git_kod\\rpgteamgenerator\\rpgteamgeneratorconsole\\build\\teamgeneratortext\\base_library.zip',
   'DATA')],
 False,
 False,
 False,
 [],
 None,
 None,
 None)
