('C:\\Users\\Weksi\\Dropbox\\git_kod\\rpgteamgenerator\\rpgteamgeneratorgui\\build\\rpgteamgenerator\\PYZ-00.pyz',
 [('pkgutil',
   'C:\\Users\\Weksi\\AppData\\Local\\Programs\\Python\\Python310\\lib\\pkgutil.py',
   'PYMODULE'),
  ('zipimport',
   'C:\\Users\\Weksi\\AppData\\Local\\Programs\\Python\\Python310\\lib\\zipimport.py',
   'PYMODULE'),
  ('importlib.readers',
   'C:\\Users\\Weksi\\AppData\\Local\\Programs\\Python\\Python310\\lib\\importlib\\readers.py',
   'PYMODULE'),
  ('importlib.abc',
   'C:\\Users\\Weksi\\AppData\\Local\\Programs\\Python\\Python310\\lib\\importlib\\abc.py',
   'PYMODULE'),
  ('typing',
   'C:\\Users\\Weksi\\AppData\\Local\\Programs\\Python\\Python310\\lib\\typing.py',
   'PYMODULE'),
  ('contextlib',
   'C:\\Users\\Weksi\\AppData\\Local\\Programs\\Python\\Python310\\lib\\contextlib.py',
   'PYMODULE'),
  ('importlib._abc',
   'C:\\Users\\Weksi\\AppData\\Local\\Programs\\Python\\Python310\\lib\\importlib\\_abc.py',
   'PYMODULE'),
  ('importlib._bootstrap',
   'C:\\Users\\Weksi\\AppData\\Local\\Programs\\Python\\Python310\\lib\\importlib\\_bootstrap.py',
   'PYMODULE'),
  ('importlib._bootstrap_external',
   'C:\\Users\\Weksi\\AppData\\Local\\Programs\\Python\\Python310\\lib\\importlib\\_bootstrap_external.py',
   'PYMODULE'),
  ('importlib.metadata',
   'C:\\Users\\Weksi\\AppData\\Local\\Programs\\Python\\Python310\\lib\\importlib\\metadata\\__init__.py',
   'PYMODULE'),
  ('importlib.metadata._itertools',
   'C:\\Users\\Weksi\\AppData\\Local\\Programs\\Python\\Python310\\lib\\importlib\\metadata\\_itertools.py',
   'PYMODULE'),
  ('importlib.metadata._functools',
   'C:\\Users\\Weksi\\AppData\\Local\\Programs\\Python\\Python310\\lib\\importlib\\metadata\\_functools.py',
   'PYMODULE'),
  ('importlib.metadata._collections',
   'C:\\Users\\Weksi\\AppData\\Local\\Programs\\Python\\Python310\\lib\\importlib\\metadata\\_collections.py',
   'PYMODULE'),
  ('importlib.metadata._meta',
   'C:\\Users\\Weksi\\AppData\\Local\\Programs\\Python\\Python310\\lib\\importlib\\metadata\\_meta.py',
   'PYMODULE'),
  ('importlib.metadata._adapters',
   'C:\\Users\\Weksi\\AppData\\Local\\Programs\\Python\\Python310\\lib\\importlib\\metadata\\_adapters.py',
   'PYMODULE'),
  ('importlib.metadata._text',
   'C:\\Users\\Weksi\\AppData\\Local\\Programs\\Python\\Python310\\lib\\importlib\\metadata\\_text.py',
   'PYMODULE'),
  ('email.message',
   'C:\\Users\\Weksi\\AppData\\Local\\Programs\\Python\\Python310\\lib\\email\\message.py',
   'PYMODULE'),
  ('email.policy',
   'C:\\Users\\Weksi\\AppData\\Local\\Programs\\Python\\Python310\\lib\\email\\policy.py',
   'PYMODULE'),
  ('email.contentmanager',
   'C:\\Users\\Weksi\\AppData\\Local\\Programs\\Python\\Python310\\lib\\email\\contentmanager.py',
   'PYMODULE'),
  ('email.quoprimime',
   'C:\\Users\\Weksi\\AppData\\Local\\Programs\\Python\\Python310\\lib\\email\\quoprimime.py',
   'PYMODULE'),
  ('string',
   'C:\\Users\\Weksi\\AppData\\Local\\Programs\\Python\\Python310\\lib\\string.py',
   'PYMODULE'),
  ('email.headerregistry',
   'C:\\Users\\Weksi\\AppData\\Local\\Programs\\Python\\Python310\\lib\\email\\headerregistry.py',
   'PYMODULE'),
  ('email._header_value_parser',
   'C:\\Users\\Weksi\\AppData\\Local\\Programs\\Python\\Python310\\lib\\email\\_header_value_parser.py',
   'PYMODULE'),
  ('email.iterators',
   'C:\\Users\\Weksi\\AppData\\Local\\Programs\\Python\\Python310\\lib\\email\\iterators.py',
   'PYMODULE'),
  ('email.generator',
   'C:\\Users\\Weksi\\AppData\\Local\\Programs\\Python\\Python310\\lib\\email\\generator.py',
   'PYMODULE'),
  ('copy',
   'C:\\Users\\Weksi\\AppData\\Local\\Programs\\Python\\Python310\\lib\\copy.py',
   'PYMODULE'),
  ('email._encoded_words',
   'C:\\Users\\Weksi\\AppData\\Local\\Programs\\Python\\Python310\\lib\\email\\_encoded_words.py',
   'PYMODULE'),
  ('base64',
   'C:\\Users\\Weksi\\AppData\\Local\\Programs\\Python\\Python310\\lib\\base64.py',
   'PYMODULE'),
  ('getopt',
   'C:\\Users\\Weksi\\AppData\\Local\\Programs\\Python\\Python310\\lib\\getopt.py',
   'PYMODULE'),
  ('gettext',
   'C:\\Users\\Weksi\\AppData\\Local\\Programs\\Python\\Python310\\lib\\gettext.py',
   'PYMODULE'),
  ('struct',
   'C:\\Users\\Weksi\\AppData\\Local\\Programs\\Python\\Python310\\lib\\struct.py',
   'PYMODULE'),
  ('email.charset',
   'C:\\Users\\Weksi\\AppData\\Local\\Programs\\Python\\Python310\\lib\\email\\charset.py',
   'PYMODULE'),
  ('email.encoders',
   'C:\\Users\\Weksi\\AppData\\Local\\Programs\\Python\\Python310\\lib\\email\\encoders.py',
   'PYMODULE'),
  ('email.base64mime',
   'C:\\Users\\Weksi\\AppData\\Local\\Programs\\Python\\Python310\\lib\\email\\base64mime.py',
   'PYMODULE'),
  ('email._policybase',
   'C:\\Users\\Weksi\\AppData\\Local\\Programs\\Python\\Python310\\lib\\email\\_policybase.py',
   'PYMODULE'),
  ('email.header',
   'C:\\Users\\Weksi\\AppData\\Local\\Programs\\Python\\Python310\\lib\\email\\header.py',
   'PYMODULE'),
  ('email.errors',
   'C:\\Users\\Weksi\\AppData\\Local\\Programs\\Python\\Python310\\lib\\email\\errors.py',
   'PYMODULE'),
  ('email.utils',
   'C:\\Users\\Weksi\\AppData\\Local\\Programs\\Python\\Python310\\lib\\email\\utils.py',
   'PYMODULE'),
  ('email._parseaddr',
   'C:\\Users\\Weksi\\AppData\\Local\\Programs\\Python\\Python310\\lib\\email\\_parseaddr.py',
   'PYMODULE'),
  ('calendar',
   'C:\\Users\\Weksi\\AppData\\Local\\Programs\\Python\\Python310\\lib\\calendar.py',
   'PYMODULE'),
  ('argparse',
   'C:\\Users\\Weksi\\AppData\\Local\\Programs\\Python\\Python310\\lib\\argparse.py',
   'PYMODULE'),
  ('shutil',
   'C:\\Users\\Weksi\\AppData\\Local\\Programs\\Python\\Python310\\lib\\shutil.py',
   'PYMODULE'),
  ('tarfile',
   'C:\\Users\\Weksi\\AppData\\Local\\Programs\\Python\\Python310\\lib\\tarfile.py',
   'PYMODULE'),
  ('gzip',
   'C:\\Users\\Weksi\\AppData\\Local\\Programs\\Python\\Python310\\lib\\gzip.py',
   'PYMODULE'),
  ('_compression',
   'C:\\Users\\Weksi\\AppData\\Local\\Programs\\Python\\Python310\\lib\\_compression.py',
   'PYMODULE'),
  ('lzma',
   'C:\\Users\\Weksi\\AppData\\Local\\Programs\\Python\\Python310\\lib\\lzma.py',
   'PYMODULE'),
  ('bz2',
   'C:\\Users\\Weksi\\AppData\\Local\\Programs\\Python\\Python310\\lib\\bz2.py',
   'PYMODULE'),
  ('datetime',
   'C:\\Users\\Weksi\\AppData\\Local\\Programs\\Python\\Python310\\lib\\datetime.py',
   'PYMODULE'),
  ('_strptime',
   'C:\\Users\\Weksi\\AppData\\Local\\Programs\\Python\\Python310\\lib\\_strptime.py',
   'PYMODULE'),
  ('socket',
   'C:\\Users\\Weksi\\AppData\\Local\\Programs\\Python\\Python310\\lib\\socket.py',
   'PYMODULE'),
  ('selectors',
   'C:\\Users\\Weksi\\AppData\\Local\\Programs\\Python\\Python310\\lib\\selectors.py',
   'PYMODULE'),
  ('quopri',
   'C:\\Users\\Weksi\\AppData\\Local\\Programs\\Python\\Python310\\lib\\quopri.py',
   'PYMODULE'),
  ('uu',
   'C:\\Users\\Weksi\\AppData\\Local\\Programs\\Python\\Python310\\lib\\uu.py',
   'PYMODULE'),
  ('optparse',
   'C:\\Users\\Weksi\\AppData\\Local\\Programs\\Python\\Python310\\lib\\optparse.py',
   'PYMODULE'),
  ('textwrap',
   'C:\\Users\\Weksi\\AppData\\Local\\Programs\\Python\\Python310\\lib\\textwrap.py',
   'PYMODULE'),
  ('email',
   'C:\\Users\\Weksi\\AppData\\Local\\Programs\\Python\\Python310\\lib\\email\\__init__.py',
   'PYMODULE'),
  ('email.parser',
   'C:\\Users\\Weksi\\AppData\\Local\\Programs\\Python\\Python310\\lib\\email\\parser.py',
   'PYMODULE'),
  ('email.feedparser',
   'C:\\Users\\Weksi\\AppData\\Local\\Programs\\Python\\Python310\\lib\\email\\feedparser.py',
   'PYMODULE'),
  ('csv',
   'C:\\Users\\Weksi\\AppData\\Local\\Programs\\Python\\Python310\\lib\\csv.py',
   'PYMODULE'),
  ('zipfile',
   'C:\\Users\\Weksi\\AppData\\Local\\Programs\\Python\\Python310\\lib\\zipfile.py',
   'PYMODULE'),
  ('py_compile',
   'C:\\Users\\Weksi\\AppData\\Local\\Programs\\Python\\Python310\\lib\\py_compile.py',
   'PYMODULE'),
  ('threading',
   'C:\\Users\\Weksi\\AppData\\Local\\Programs\\Python\\Python310\\lib\\threading.py',
   'PYMODULE'),
  ('_threading_local',
   'C:\\Users\\Weksi\\AppData\\Local\\Programs\\Python\\Python310\\lib\\_threading_local.py',
   'PYMODULE'),
  ('inspect',
   'C:\\Users\\Weksi\\AppData\\Local\\Programs\\Python\\Python310\\lib\\inspect.py',
   'PYMODULE'),
  ('dis',
   'C:\\Users\\Weksi\\AppData\\Local\\Programs\\Python\\Python310\\lib\\dis.py',
   'PYMODULE'),
  ('opcode',
   'C:\\Users\\Weksi\\AppData\\Local\\Programs\\Python\\Python310\\lib\\opcode.py',
   'PYMODULE'),
  ('importlib.machinery',
   'C:\\Users\\Weksi\\AppData\\Local\\Programs\\Python\\Python310\\lib\\importlib\\machinery.py',
   'PYMODULE'),
  ('importlib.util',
   'C:\\Users\\Weksi\\AppData\\Local\\Programs\\Python\\Python310\\lib\\importlib\\util.py',
   'PYMODULE'),
  ('importlib',
   'C:\\Users\\Weksi\\AppData\\Local\\Programs\\Python\\Python310\\lib\\importlib\\__init__.py',
   'PYMODULE'),
  ('subprocess',
   'C:\\Users\\Weksi\\AppData\\Local\\Programs\\Python\\Python310\\lib\\subprocess.py',
   'PYMODULE'),
  ('signal',
   'C:\\Users\\Weksi\\AppData\\Local\\Programs\\Python\\Python310\\lib\\signal.py',
   'PYMODULE'),
  ('stringprep',
   'C:\\Users\\Weksi\\AppData\\Local\\Programs\\Python\\Python310\\lib\\stringprep.py',
   'PYMODULE'),
  ('_py_abc',
   'C:\\Users\\Weksi\\AppData\\Local\\Programs\\Python\\Python310\\lib\\_py_abc.py',
   'PYMODULE'),
  ('tempfile',
   'C:\\Users\\Weksi\\AppData\\Local\\Programs\\Python\\Python310\\lib\\tempfile.py',
   'PYMODULE'),
  ('getpass',
   'C:\\Users\\Weksi\\AppData\\Local\\Programs\\Python\\Python310\\lib\\getpass.py',
   'PYMODULE'),
  ('nturl2path',
   'C:\\Users\\Weksi\\AppData\\Local\\Programs\\Python\\Python310\\lib\\nturl2path.py',
   'PYMODULE'),
  ('ftplib',
   'C:\\Users\\Weksi\\AppData\\Local\\Programs\\Python\\Python310\\lib\\ftplib.py',
   'PYMODULE'),
  ('netrc',
   'C:\\Users\\Weksi\\AppData\\Local\\Programs\\Python\\Python310\\lib\\netrc.py',
   'PYMODULE'),
  ('shlex',
   'C:\\Users\\Weksi\\AppData\\Local\\Programs\\Python\\Python310\\lib\\shlex.py',
   'PYMODULE'),
  ('mimetypes',
   'C:\\Users\\Weksi\\AppData\\Local\\Programs\\Python\\Python310\\lib\\mimetypes.py',
   'PYMODULE'),
  ('http.cookiejar',
   'C:\\Users\\Weksi\\AppData\\Local\\Programs\\Python\\Python310\\lib\\http\\cookiejar.py',
   'PYMODULE'),
  ('http',
   'C:\\Users\\Weksi\\AppData\\Local\\Programs\\Python\\Python310\\lib\\http\\__init__.py',
   'PYMODULE'),
  ('logging',
   'C:\\Users\\Weksi\\AppData\\Local\\Programs\\Python\\Python310\\lib\\logging\\__init__.py',
   'PYMODULE'),
  ('pickle',
   'C:\\Users\\Weksi\\AppData\\Local\\Programs\\Python\\Python310\\lib\\pickle.py',
   'PYMODULE'),
  ('pprint',
   'C:\\Users\\Weksi\\AppData\\Local\\Programs\\Python\\Python310\\lib\\pprint.py',
   'PYMODULE'),
  ('dataclasses',
   'C:\\Users\\Weksi\\AppData\\Local\\Programs\\Python\\Python310\\lib\\dataclasses.py',
   'PYMODULE'),
  ('_compat_pickle',
   'C:\\Users\\Weksi\\AppData\\Local\\Programs\\Python\\Python310\\lib\\_compat_pickle.py',
   'PYMODULE'),
  ('ssl',
   'C:\\Users\\Weksi\\AppData\\Local\\Programs\\Python\\Python310\\lib\\ssl.py',
   'PYMODULE'),
  ('http.client',
   'C:\\Users\\Weksi\\AppData\\Local\\Programs\\Python\\Python310\\lib\\http\\client.py',
   'PYMODULE'),
  ('hashlib',
   'C:\\Users\\Weksi\\AppData\\Local\\Programs\\Python\\Python310\\lib\\hashlib.py',
   'PYMODULE'),
  ('bisect',
   'C:\\Users\\Weksi\\AppData\\Local\\Programs\\Python\\Python310\\lib\\bisect.py',
   'PYMODULE'),
  ('tracemalloc',
   'C:\\Users\\Weksi\\AppData\\Local\\Programs\\Python\\Python310\\lib\\tracemalloc.py',
   'PYMODULE'),
  ('random',
   'C:\\Users\\Weksi\\AppData\\Local\\Programs\\Python\\Python310\\lib\\random.py',
   'PYMODULE'),
  ('statistics',
   'C:\\Users\\Weksi\\AppData\\Local\\Programs\\Python\\Python310\\lib\\statistics.py',
   'PYMODULE'),
  ('decimal',
   'C:\\Users\\Weksi\\AppData\\Local\\Programs\\Python\\Python310\\lib\\decimal.py',
   'PYMODULE'),
  ('_pydecimal',
   'C:\\Users\\Weksi\\AppData\\Local\\Programs\\Python\\Python310\\lib\\_pydecimal.py',
   'PYMODULE'),
  ('contextvars',
   'C:\\Users\\Weksi\\AppData\\Local\\Programs\\Python\\Python310\\lib\\contextvars.py',
   'PYMODULE'),
  ('fractions',
   'C:\\Users\\Weksi\\AppData\\Local\\Programs\\Python\\Python310\\lib\\fractions.py',
   'PYMODULE'),
  ('numbers',
   'C:\\Users\\Weksi\\AppData\\Local\\Programs\\Python\\Python310\\lib\\numbers.py',
   'PYMODULE'),
  ('tkinter',
   'C:\\Users\\Weksi\\AppData\\Local\\Programs\\Python\\Python310\\lib\\tkinter\\__init__.py',
   'PYMODULE'),
  ('tkinter.constants',
   'C:\\Users\\Weksi\\AppData\\Local\\Programs\\Python\\Python310\\lib\\tkinter\\constants.py',
   'PYMODULE'),
  ('cgitb',
   'C:\\Users\\Weksi\\AppData\\Local\\Programs\\Python\\Python310\\lib\\cgitb.py',
   'PYMODULE'),
  ('pydoc',
   'C:\\Users\\Weksi\\AppData\\Local\\Programs\\Python\\Python310\\lib\\pydoc.py',
   'PYMODULE'),
  ('webbrowser',
   'C:\\Users\\Weksi\\AppData\\Local\\Programs\\Python\\Python310\\lib\\webbrowser.py',
   'PYMODULE'),
  ('glob',
   'C:\\Users\\Weksi\\AppData\\Local\\Programs\\Python\\Python310\\lib\\glob.py',
   'PYMODULE'),
  ('http.server',
   'C:\\Users\\Weksi\\AppData\\Local\\Programs\\Python\\Python310\\lib\\http\\server.py',
   'PYMODULE'),
  ('socketserver',
   'C:\\Users\\Weksi\\AppData\\Local\\Programs\\Python\\Python310\\lib\\socketserver.py',
   'PYMODULE'),
  ('html',
   'C:\\Users\\Weksi\\AppData\\Local\\Programs\\Python\\Python310\\lib\\html\\__init__.py',
   'PYMODULE'),
  ('html.entities',
   'C:\\Users\\Weksi\\AppData\\Local\\Programs\\Python\\Python310\\lib\\html\\entities.py',
   'PYMODULE'),
  ('pydoc_data.topics',
   'C:\\Users\\Weksi\\AppData\\Local\\Programs\\Python\\Python310\\lib\\pydoc_data\\topics.py',
   'PYMODULE'),
  ('pydoc_data',
   'C:\\Users\\Weksi\\AppData\\Local\\Programs\\Python\\Python310\\lib\\pydoc_data\\__init__.py',
   'PYMODULE'),
  ('tty',
   'C:\\Users\\Weksi\\AppData\\Local\\Programs\\Python\\Python310\\lib\\tty.py',
   'PYMODULE'),
  ('sysconfig',
   'C:\\Users\\Weksi\\AppData\\Local\\Programs\\Python\\Python310\\lib\\sysconfig.py',
   'PYMODULE'),
  ('_aix_support',
   'C:\\Users\\Weksi\\AppData\\Local\\Programs\\Python\\Python310\\lib\\_aix_support.py',
   'PYMODULE'),
  ('_bootsubprocess',
   'C:\\Users\\Weksi\\AppData\\Local\\Programs\\Python\\Python310\\lib\\_bootsubprocess.py',
   'PYMODULE'),
  ('platform',
   'C:\\Users\\Weksi\\AppData\\Local\\Programs\\Python\\Python310\\lib\\platform.py',
   'PYMODULE'),
  ('ast',
   'C:\\Users\\Weksi\\AppData\\Local\\Programs\\Python\\Python310\\lib\\ast.py',
   'PYMODULE')])
